{
    "fluentMethods": true,
    "clientRootFolder": "",
    "relationships": [
        {
            "relationshipType": "one-to-one",
            "otherEntityName": "country",
            "otherEntityRelationshipName": "trip",
            "relationshipName": "country",
            "otherEntityField": "name",
            "ownerSide": true,
            "otherEntityRelationshipNameUndefined": false
        },
        {
            "relationshipType": "many-to-many",
            "otherEntityName": "category",
            "otherEntityRelationshipName": "trips",
            "relationshipName": "categories",
            "otherEntityField": "name",
            "ownerSide": true,
            "otherEntityRelationshipNameUndefined": false
        },
        {
            "relationshipName": "owner",
            "otherEntityName": "user",
            "relationshipType": "many-to-one",
            "otherEntityField": "login",
            "ownerSide": true,
            "otherEntityRelationshipName": "trip",
            "otherEntityRelationshipNameUndefined": false
        },
        {
            "relationshipName": "users",
            "otherEntityName": "user",
            "relationshipType": "many-to-many",
            "otherEntityField": "login",
            "ownerSide": true,
            "otherEntityRelationshipName": "trip",
            "otherEntityRelationshipNameUndefined": false
        }
    ],
    "fields": [
        {
            "fieldName": "title",
            "fieldType": "String"
        },
        {
            "fieldName": "description",
            "fieldType": "String"
        },
        {
            "fieldName": "duration",
            "fieldType": "String"
        },
        {
            "fieldName": "size",
            "fieldType": "Integer"
        },
        {
            "fieldName": "periode",
            "fieldType": "LocalDate"
        },
        {
            "fieldName": "createdAt",
            "fieldType": "LocalDate"
        },
        {
            "fieldName": "updatedAt",
            "fieldType": "LocalDate"
        },
        {
            "fieldName": "aproxPrice",
            "fieldType": "Double"
        },
        {
            "fieldName": "image",
            "fieldType": "String"
        }
    ],
    "changelogDate": "20190322131130",
    "dto": "mapstruct",
    "searchEngine": "elasticsearch",
    "service": "serviceClass",
    "entityTableName": "trip",
    "databaseType": "mongodb",
    "jpaMetamodelFiltering": false,
    "pagination": "pagination"
}
