{
    "fluentMethods": true,
    "clientRootFolder": "",
    "relationships": [
        {
            "relationshipName": "user",
            "otherEntityName": "user",
            "relationshipType": "one-to-one",
            "otherEntityField": "login",
            "ownerSide": true,
            "otherEntityRelationshipName": "userInfo"
        }
    ],
    "fields": [
        {
            "fieldName": "description",
            "fieldType": "String"
        },
        {
            "fieldName": "birthDay",
            "fieldType": "LocalDate"
        },
        {
            "fieldName": "job",
            "fieldType": "String"
        },
        {
            "fieldName": "favoriteArtist",
            "fieldType": "String"
        },
        {
            "fieldName": "favoriteBook",
            "fieldType": "String"
        }
    ],
    "dto": "mapstruct",
    "searchEngine": "elasticsearch",
    "service": "serviceClass",
    "entityTableName": "user_info",
    "databaseType": "mongodb",
    "jpaMetamodelFiltering": false,
    "pagination": "pagination"
}
